{"count":1022,"next":"http://mapping.emergency.copernicus.eu/activations/api/activations/?limit=2&offset=2","previous":null,"results":[{"code":"EMSR888","countries":[{"short_name":"Spain"}],"category":{"slug":"fire","name":"Wildfire"},"name":"Wildfires in Les Gavarres, Spain","centroid":"POINT (3.02689832031625 41.85008701143381)","activationTime":"2026-07-03T16:38:00","lastUpdate":"2026-07-06T11:41:14.133381","drmPhase":"response","closed":false,"n_aois":1,"n_products":3,"search_snippet":"A wildfire that broke out in the municipality of La Bisbal d'Empordà is spreading southward. Seven municipalities have been placed on alert via the ES-Alert system, affecting a total of 12,000 residents.  . Copernicus EMS Rapid Mapping is requested to provide initial rough estimation, wildfire ex...","past_items_search_text":""},{"code":"EMSR887","countries":[{"short_name":"Spain"}],"category":{"slug":"fire","name":"Wildfire"},"name":"Wildfire in Congosto, Spain","centroid":"POINT (-6.494080932059824 42.64167229370756)","activationTime":"2026-07-03T11:17:00","lastUpdate":"2026-07-06T08:27:31.841835","drmPhase":"response","closed":false,"n_aois":1,"n_products":2,"search_snippet":"On 24 June 2026 at 21:27, a wildfire was reported to have affected the Congosto area, León Province, Castilla y León, Spain. The event is on-going and spreading, with damage reported to affect forestry, natural vegetation and potentially nearby infrastructure. Copernicus EMS Rapid Mapping is requ...","past_items_search_text":""}]}