{"count":224,"next":"https://rapidmapping.emergency.copernicus.eu/backend/dashboard-api/public-activations-info/?limit=3&offset=3","previous":null,"results":[{"code":"EMSR888","countries":["Spain"],"eventTime":"2026-07-03T07:16:00","name":"Wildfires in Les Gavarres, Spain","centroid":"POINT (3.02689832031625 41.85008701143381)","activationTime":"2026-07-03T16:38:00","category":"Wildfire","lastUpdate":"2026-07-06T11:41:14.133381","closed":false,"gdacsId":null,"n_aois":1,"n_products":3},{"code":"EMSR887","countries":["Spain"],"eventTime":"2026-06-24T19:17:00","name":"Wildfire in Congosto, Spain","centroid":"POINT (-6.494080932059824 42.64167229370756)","activationTime":"2026-07-03T11:17:00","category":"Wildfire","lastUpdate":"2026-07-06T08:27:31.841835","closed":false,"gdacsId":null,"n_aois":1,"n_products":2},{"code":"EMSR886","countries":["Germany"],"eventTime":"2026-06-27T15:00:00","name":"Wildfire in Rhineland-Palatinate, Germany","centroid":"POINT (7.826469502837607 49.829754729741964)","activationTime":"2026-06-27T15:51:00","category":"Wildfire","lastUpdate":"2026-07-01T13:13:44.879338","closed":true,"gdacsId":null,"n_aois":1,"n_products":2}]}